\relax 
\@writefile{toc}{\contentsline {section}{\numberline {1}Abstract}{1}\protected@file@percent }
\@writefile{toc}{\contentsline {section}{\numberline {2}Introduction}{1}\protected@file@percent }
\@writefile{toc}{\contentsline {section}{\numberline {3}Literature Review}{2}\protected@file@percent }
\@writefile{toc}{\contentsline {subsection}{\numberline {3.1}Supercritical Liquids}{2}\protected@file@percent }
\@writefile{toc}{\contentsline {subsubsection}{\numberline {3.1.1}Basics}{2}\protected@file@percent }
\@writefile{toc}{\contentsline {subsubsection}{\numberline {3.1.2}Applications to Supercritical Water Reactors}{2}\protected@file@percent }
\citation{LOEWENBERG2008}
\@writefile{lof}{\contentsline {figure}{\numberline {1}{\ignorespaces By Rifleman 82 - Own work, CC0, https://commons.wikimedia.org/w/index.php?curid=74352891}}{3}\protected@file@percent }
\newlabel{fig:final}{{1}{3}}
\citation{LOEWENBERG2008}
\citation{LOEWENBERG2008}
\citation{LOEWENBERG2008}
\@writefile{toc}{\contentsline {subsubsection}{\numberline {3.1.3}Modelling Problems}{4}\protected@file@percent }
\@writefile{toc}{\contentsline {subsection}{\numberline {3.2}Modeling Techniques}{4}\protected@file@percent }
\@writefile{toc}{\contentsline {subsubsection}{\numberline {3.2.1}Heat Correlations}{4}\protected@file@percent }
\citation{CHENG2007240}
\citation{CHENG2007240}
\citation{LOEWENBERG2008}
\citation{LOEWENBERG2008}
\citation{LOEWENBERG2008}
\citation{LOEWENBERG2008}
\@writefile{toc}{\contentsline {subsubsection}{\numberline {3.2.2}Lookup Tables}{5}\protected@file@percent }
\citation{CHU2018}
\citation{CHANG2017}
\citation{CHANG2017}
\citation{CHU2018}
\citation{CHU2018}
\@writefile{toc}{\contentsline {subsubsection}{\numberline {3.2.3}Direct Numerical Simulation}{6}\protected@file@percent }
\@writefile{toc}{\contentsline {subsubsection}{\numberline {3.2.4}Aritifical Neural Networks}{6}\protected@file@percent }
\@writefile{toc}{\contentsline {subsection}{\numberline {3.3}Artificial Neural Networks}{7}\protected@file@percent }
\@writefile{toc}{\contentsline {subsubsection}{\numberline {3.3.1}Basics}{7}\protected@file@percent }
\@writefile{toc}{\contentsline {subsection}{\numberline {3.4}Training and Gradient Descent}{8}\protected@file@percent }
\@writefile{toc}{\contentsline {subsubsection}{\numberline {3.4.1}Hidden Units and Hidden Layers}{9}\protected@file@percent }
\@writefile{toc}{\contentsline {subsubsection}{\numberline {3.4.2}Activation Functions}{9}\protected@file@percent }
\citation{PRECHELT1998761}
\citation{DROPOUT2012}
\citation{DROPOUT2012}
\citation{BatchNormalisation}
\citation{krogh1992simple}
\@writefile{toc}{\contentsline {subsubsection}{\numberline {3.4.3}Overfitting and Regularisation}{10}\protected@file@percent }
\citation{CHANG2017}
\citation{rafiq2001neural}
\@writefile{toc}{\contentsline {section}{\numberline {4}Aims and Objectives}{11}\protected@file@percent }
\@writefile{toc}{\contentsline {section}{\numberline {5}Date Processing}{11}\protected@file@percent }
\@writefile{toc}{\contentsline {subsection}{\numberline {5.1}Dataset}{11}\protected@file@percent }
\citation{LOEWENBERG2008}
\@writefile{lof}{\contentsline {figure}{\numberline {2}{\ignorespaces Median Error against our activation functions}}{12}\protected@file@percent }
\newlabel{fig:initial}{{2}{12}}
\@writefile{toc}{\contentsline {subsection}{\numberline {5.2}Dimensionality Reduction}{12}\protected@file@percent }
\citation{CHANG2017}
\citation{LOEWENBERG2008}
\citation{yamagata1972forced}
\@writefile{toc}{\contentsline {subsection}{\numberline {5.3}Data Range Reduction}{13}\protected@file@percent }
\@writefile{toc}{\contentsline {subsection}{\numberline {5.4}Heat Deterioration Identification}{13}\protected@file@percent }
\@writefile{toc}{\contentsline {subsection}{\numberline {5.5}Scaling and Normalization}{13}\protected@file@percent }
\citation{CHANG2017}
\citation{LOEWENBERG2008}
\@writefile{lof}{\contentsline {figure}{\numberline {3}{\ignorespaces Median Error against our activation functions}}{14}\protected@file@percent }
\newlabel{fig:final}{{3}{14}}
\@writefile{toc}{\contentsline {subsection}{\numberline {5.6}Final Dataset}{14}\protected@file@percent }
\citation{CHANG2017}
\citation{CHANG2017}
\@writefile{toc}{\contentsline {section}{\numberline {6}Baseline Model}{15}\protected@file@percent }
\@writefile{toc}{\contentsline {subsection}{\numberline {6.1}Dataset}{15}\protected@file@percent }
\@writefile{toc}{\contentsline {subsection}{\numberline {6.2}Architecture}{15}\protected@file@percent }
\@writefile{toc}{\contentsline {subsection}{\numberline {6.3}Training}{15}\protected@file@percent }
\citation{CHANG2017}
\citation{CHANG2017}
\@writefile{toc}{\contentsline {subsection}{\numberline {6.4}Results}{16}\protected@file@percent }
\@writefile{lof}{\contentsline {figure}{\numberline {4}{\ignorespaces Mean Squared Error for different activation functions}}{16}\protected@file@percent }
\newlabel{fig:baseline_percentages}{{4}{16}}
\@writefile{toc}{\contentsline {subsection}{\numberline {6.5}Discussion}{16}\protected@file@percent }
\@writefile{lof}{\contentsline {figure}{\numberline {5}{\ignorespaces Mean Squared Error for different activation functions}}{17}\protected@file@percent }
\newlabel{fig:baseline_mse}{{5}{17}}
\@writefile{lot}{\contentsline {table}{\numberline {1}{\ignorespaces Chang et al. Validation results against our validation results \cite  {CHANG2017} [tab. 1]}}{18}\protected@file@percent }
\@writefile{toc}{\contentsline {section}{\numberline {7}Experiments}{18}\protected@file@percent }
\@writefile{toc}{\contentsline {subsection}{\numberline {7.1}Architecture}{18}\protected@file@percent }
\@writefile{toc}{\contentsline {subsubsection}{\numberline {7.1.1}Objective}{18}\protected@file@percent }
\@writefile{toc}{\contentsline {subsubsection}{\numberline {7.1.2}Method}{18}\protected@file@percent }
\@writefile{toc}{\contentsline {subsubsection}{\numberline {7.1.3}Results}{19}\protected@file@percent }
\@writefile{lof}{\contentsline {figure}{\numberline {6}{\ignorespaces Mean percentage error [\%] for 1 hidden layer networks}}{20}\protected@file@percent }
\newlabel{fig:arc_0_mean}{{6}{20}}
\@writefile{toc}{\contentsline {subsubsection}{\numberline {7.1.4}Outcome}{20}\protected@file@percent }
\@writefile{lof}{\contentsline {figure}{\numberline {7}{\ignorespaces Mean percentage error [\%] for 2 hidden layer networks}}{21}\protected@file@percent }
\newlabel{fig:arc_1_mean}{{7}{21}}
\@writefile{toc}{\contentsline {subsubsection}{\numberline {7.1.5}Follow Up}{21}\protected@file@percent }
\@writefile{lof}{\contentsline {figure}{\numberline {8}{\ignorespaces Mean percentage error [\%] for 3 hidden layer networks}}{22}\protected@file@percent }
\newlabel{fig:arc_2_mean}{{8}{22}}
\@writefile{toc}{\contentsline {subsubsection}{\numberline {7.1.6}Results}{22}\protected@file@percent }
\@writefile{lof}{\contentsline {figure}{\numberline {9}{\ignorespaces Mean percentage error [\%] for 4 hidden layer networks}}{23}\protected@file@percent }
\newlabel{fig:arc_3_mean}{{9}{23}}
\@writefile{toc}{\contentsline {subsubsection}{\numberline {7.1.7}Outcome}{23}\protected@file@percent }
\@writefile{toc}{\contentsline {subsection}{\numberline {7.2}Activation Function}{23}\protected@file@percent }
\@writefile{toc}{\contentsline {subsubsection}{\numberline {7.2.1}Objective}{23}\protected@file@percent }
\@writefile{lof}{\contentsline {figure}{\numberline {10}{\ignorespaces Median percentage error [\%] for 1 hidden layer networks}}{24}\protected@file@percent }
\newlabel{fig:arc_0_med}{{10}{24}}
\@writefile{toc}{\contentsline {subsubsection}{\numberline {7.2.2}Method}{24}\protected@file@percent }
\@writefile{lof}{\contentsline {figure}{\numberline {11}{\ignorespaces Median percentage error [\%] for 2 hidden layer networks}}{25}\protected@file@percent }
\newlabel{fig:arc_1_med}{{11}{25}}
\@writefile{toc}{\contentsline {subsubsection}{\numberline {7.2.3}Results}{25}\protected@file@percent }
\@writefile{lof}{\contentsline {figure}{\numberline {12}{\ignorespaces Median percentage error [\%] for 3 hidden layer networks}}{26}\protected@file@percent }
\newlabel{fig:arc_2_med}{{12}{26}}
\@writefile{toc}{\contentsline {subsubsection}{\numberline {7.2.4}Outcome}{26}\protected@file@percent }
\@writefile{toc}{\contentsline {subsection}{\numberline {7.3}Regularization techniques}{26}\protected@file@percent }
\@writefile{toc}{\contentsline {subsubsection}{\numberline {7.3.1}Objective}{26}\protected@file@percent }
\@writefile{lof}{\contentsline {figure}{\numberline {13}{\ignorespaces Median percentage error [\%] for 4 hidden layer networks}}{27}\protected@file@percent }
\newlabel{fig:arc_3_med}{{13}{27}}
\@writefile{toc}{\contentsline {subsubsection}{\numberline {7.3.2}Method}{27}\protected@file@percent }
\@writefile{lof}{\contentsline {figure}{\numberline {14}{\ignorespaces Mean Squared Error for 1 hidden layer networks}}{28}\protected@file@percent }
\newlabel{fig:arc_0_mse}{{14}{28}}
\@writefile{lof}{\contentsline {figure}{\numberline {15}{\ignorespaces Mean Squared Error for 2 hidden layer networks}}{29}\protected@file@percent }
\newlabel{fig:arc_1_mse}{{15}{29}}
\@writefile{lof}{\contentsline {figure}{\numberline {16}{\ignorespaces Mean Squared Error for 3 hidden layer networks}}{30}\protected@file@percent }
\newlabel{fig:arc_2_mse}{{16}{30}}
\@writefile{toc}{\contentsline {subsubsection}{\numberline {7.3.3}Results}{30}\protected@file@percent }
\@writefile{toc}{\contentsline {subsubsection}{\numberline {7.3.4}Outcome}{30}\protected@file@percent }
\@writefile{lof}{\contentsline {figure}{\numberline {17}{\ignorespaces Mean Squared Error for 4 hidden layer networks}}{31}\protected@file@percent }
\newlabel{fig:arc_3_mse}{{17}{31}}
\citation{CHANG2017}
\@writefile{lof}{\contentsline {figure}{\numberline {18}{\ignorespaces Mean error percentage [\%] for the followup networks}}{32}\protected@file@percent }
\newlabel{fig:fup_mean}{{18}{32}}
\@writefile{toc}{\contentsline {section}{\numberline {8}Final Model}{32}\protected@file@percent }
\@writefile{toc}{\contentsline {subsection}{\numberline {8.1}Implementation}{32}\protected@file@percent }
\bibstyle{ieeetran}
\bibdata{reference}
\bibcite{LOEWENBERG2008}{1}
\@writefile{lof}{\contentsline {figure}{\numberline {19}{\ignorespaces Median percentage error [\%] for the followup networks}}{33}\protected@file@percent }
\newlabel{fig:fup_med}{{19}{33}}
\@writefile{toc}{\contentsline {subsection}{\numberline {8.2}Results Overview}{33}\protected@file@percent }
\bibcite{CHENG2007240}{2}
\bibcite{CHU2018}{3}
\@writefile{lof}{\contentsline {figure}{\numberline {20}{\ignorespaces Mean Squared Error for the followup networks}}{34}\protected@file@percent }
\newlabel{fig:fup_mse}{{20}{34}}
\@writefile{toc}{\contentsline {subsection}{\numberline {8.3}Comparison}{34}\protected@file@percent }
\@writefile{toc}{\contentsline {subsection}{\numberline {8.4}Discussion}{34}\protected@file@percent }
\@writefile{toc}{\contentsline {section}{\numberline {9}Concluding Remarks}{34}\protected@file@percent }
\bibcite{CHANG2017}{4}
\bibcite{PRECHELT1998761}{5}
\bibcite{DROPOUT2012}{6}
\@writefile{lof}{\contentsline {figure}{\numberline {21}{\ignorespaces Mean Error (\%) for different activation functions}}{35}\protected@file@percent }
\newlabel{fig:act_mean}{{21}{35}}
\bibcite{BatchNormalisation}{7}
\bibcite{krogh1992simple}{8}
\bibcite{rafiq2001neural}{9}
\bibcite{yamagata1972forced}{10}
\@writefile{lof}{\contentsline {figure}{\numberline {22}{\ignorespaces Median Error (\%) for different activation functions}}{36}\protected@file@percent }
\newlabel{fig:act_med}{{22}{36}}
\@writefile{lof}{\contentsline {figure}{\numberline {23}{\ignorespaces Mean Squared Error for different activation functions}}{37}\protected@file@percent }
\newlabel{fig:act_mse}{{23}{37}}
\@writefile{lof}{\contentsline {figure}{\numberline {24}{\ignorespaces Validation mean percentage error [\%] for different regularisation methods}}{38}\protected@file@percent }
\newlabel{fig:reg_mean}{{24}{38}}
\@writefile{lof}{\contentsline {figure}{\numberline {25}{\ignorespaces Validation median percentage error [\%] for different regularisation methods}}{38}\protected@file@percent }
\newlabel{fig:reg_median}{{25}{38}}
\@writefile{lof}{\contentsline {figure}{\numberline {26}{\ignorespaces Validation mean squared error for different regularisation methods}}{39}\protected@file@percent }
\newlabel{fig:reg_mse}{{26}{39}}
\@writefile{lof}{\contentsline {figure}{\numberline {27}{\ignorespaces The absolute percentage difference between the validation mean and the training mean for different regularisation methods. }}{39}\protected@file@percent }
\newlabel{fig:reg_ratio}{{27}{39}}
\@writefile{lof}{\contentsline {figure}{\numberline {28}{\ignorespaces Mean error percentage [\%] between baseline and final models}}{40}\protected@file@percent }
\newlabel{fig:final_mean}{{28}{40}}
\@writefile{lof}{\contentsline {figure}{\numberline {29}{\ignorespaces Median error percentage [\%] between baseline and final models}}{41}\protected@file@percent }
\newlabel{fig:final_mean}{{29}{41}}
\@writefile{lof}{\contentsline {figure}{\numberline {30}{\ignorespaces Mean Squared Error between baseline and final models}}{42}\protected@file@percent }
\newlabel{fig:final_mse}{{30}{42}}
\@writefile{lof}{\contentsline {figure}{\numberline {31}{\ignorespaces Standard deviation between baseline and final models}}{43}\protected@file@percent }
\newlabel{fig:final_std}{{31}{43}}
